@extends('admin.home')
@section('content')


<style>
    .rounded-profile {
        border-radius: 100% !important;
        overflow: hidden;
        width: 100px;
        height: 100px;
        border: 8px solid rgba(255, 255, 255, 0.7);
    }

    wrap {
        width: 500px;
        margin: 2em auto;
    }

    .clearfix:before,
    .clearfix:after {
        content: " ";
        display: table;
    }

    .clearfix:after {
        clear: both;
    }

    .select2-result-repository {
        padding-top: 4px;
        padding-bottom: 3px;
    }

    .select2-result-repository__avatar {
        float: left;
        width: 60px;
        height: auto;
        margin-right: 10px;
    }

    .select2-result-repository__avatar img {
        width: 100%;
        height: auto;
        border-radius: 50%;
    }

    .select2-result-repository__meta {
        margin-left: 70px;
    }

    .select2-result-repository__title {
        color: black;
        font-weight: bold;
        word-wrap: break-word;
        line-height: 1.1;
        margin-bottom: 4px;
    }

    .select2-result-repository__price,
    .select2-result-repository__stargazers {
        margin-right: 1em;
    }

    .select2-result-repository__price,
    .select2-result-repository__stargazers,
    .select2-result-repository__watchers {
        display: inline-block;
        color: rgb(68, 68, 68);
        font-size: 13px;
    }

    .select2-result-repository__description {
        font-size: 13px;
        color: #777;
        margin-top: 4px;
    }

    .select2-results__option--highlighted .select2-result-repository__title {
        color: white;
    }

    .select2-results__option--highlighted .select2-result-repository__price,
    .select2-results__option--highlighted .select2-result-repository__stargazers,
    .select2-results__option--highlighted .select2-result-repository__description,
    .select2-results__option--highlighted .select2-result-repository__watchers {
        color: #c6dcef;
    }
</style>

<style>
    .list-group-item {
        user-select: none;
    }

    .list-group input[type="checkbox"] {
        display: none;
    }

    .list-group input[type="checkbox"]+.list-group-item {
        cursor: pointer;
    }

    .list-group input[type="checkbox"]+.list-group-item:before {
        content: "\2713";
        color: transparent;
        font-weight: bold;
        margin-right: 1em;
    }

    .list-group input[type="checkbox"]:checked+.list-group-item {
        background-color: #0275D8;
        color: #FFF;
    }

    .list-group input[type="checkbox"]:checked+.list-group-item:before {
        color: inherit;
    }

    .list-group input[type="radio"] {
        display: none;
    }

    .list-group input[type="radio"]+.list-group-item {
        cursor: pointer;
    }

    .list-group input[type="radio"]:checked+.list-group-item {
        background-color: #0275D8;
        color: #FFF;
    }

    .list-group input[type="radio"]:checked+.list-group-item:before {
        color: inherit;
    }

    .scroll-area-sm {
        /* box-shadow: 0 5px 5px rgba(0, 0, 0, 0.2); */
        margin-top: 10px;
        margin-bottom: 10px;
        padding: 10px;
    }

    .user-profile {
        box-shadow: 0 5px 5px rgba(0, 0, 0, 0.2);
        margin: auto;
        height: 8em;
        background: #fff;
        border-radius: .3em;
        margin-bottom: 20px;
    }

    .user-profile .username {
        margin: auto;
        margin-top: -4.40em;
        margin-left: 5.80em;
        color: #658585;
        font-size: 1.53em;
        font-family: "Coda", sans-serif;
        font-weight: bold;
    }

    .user-profile .bio {
        margin: auto;
        display: inline-block;
        margin-left: 10.43em;
        color: #e76043;
        font-size: .87em;
        font-family: "varela round", sans-serif;
    }

    .user-profile>.description {
        margin: auto;
        margin-top: 1.35em;
        margin-right: 4.43em;
        width: 14em;
        color: #c0c5c5;
        font-size: .87em;
        font-family: "varela round", sans-serif;
    }

    .user-profile>img.avatar {
        padding: .7em;
        margin-left: .3em;
        margin-top: .3em;
        height: 6.23em;
        width: 6.23em;
        border-radius: 18em;
    }
</style>

<form id="order-form" style="display: contents;">
    <div class="col-md-12">
        <div class="card">
            <div class="card-header header-bg">
                Admin Create Transaction Orderasd
            </div>
        </div>
    </div>
    <div class="col-md-12">
        <div class="card">
            <div class="card-body">
                <div class="row">
                    <div class="col-md-6">
                        <label>SELECT CUSTOMER</label>
                        <div class="form-group">
                            <select class="select-customer" style="width:100%">
                                @if($ticket != null)
                                <option value="{{ $ticket->user->id }}" selected="selected">{{ $ticket->user->email }} / {{ $ticket->user->name }}</option>
                                @else
                                <option value="" selected="selected">Search by Email / Name</option>
                                @endif
                            </select>
                        </div>
                        <div id="detail_customer_text" style="box-shadow: 0 5px 5px rgba(0, 0, 0, 0.2); padding: 10px;">
                            @if($ticket != null)
                            <input type="hidden" id="ticket_id" name="ticket_id" value="{{ $ticket->id }}" />
                            <label>EMAIL</label>
                            <div class="form-group">
                                <p>{{ $ticket->user->email }}</p>
                            </div>
                            <label>PHONE</label>
                            <div class="form-group">
                                <p>{{ $ticket->user->phone }}</p>
                            </div>
                            <label>SELECT CUSTOMER ADDRESS</label>
                            <div>
                                <div class="list-group">
                                    @foreach($ticket->user->addresses as $addr)
                                    <input data-type_address="{{ $addr->types->name }}" data-detail_address="{{ $addr->address }}" data-id="{{ $addr->id }}" class="radio-alamat" type="radio" name="address_id" value="{{ $addr->id }}" id="Radio-{{ $addr->id }}" {{ $addr->is_main == 1 ? 'checked' : '' }} />
                                    <label class="list-group-item" for="Radio-{{ $addr->id }}">
                                        {{ $addr->types->name }}
                                        <p>{{ $addr->address }}</p>
                                    </label>
                                    @endforeach
                                </div>
                            </div>
                            @endif
                        </div>
                    </div>
                    <div class="col-md-6">
                        <div class="card-shadow-alternate mb-3 card card-body shadow-none form-group" id="available_schedule" style="display:none; padding-top:5px; margin-left:5px;">
                            <div class="position-relative form-group">
                                <label class="label-header" for="">
                                    AVAILABLE SCHEDULE
                                </label>
                                <input class="form-control datetimepicker" name="schedule" type="text" id="schedule" readonly />
                            </div>
                            <div class="row" id="display_hours_available" style="padding:5px;"></div>
                            <hr />
                        </div>

                        <div class="card-shadow-alternate border mb-3 card card-body border-alternate shadow-none">
                            @if($ticket != null)
                            <div class="widget-content p-0">
                                <div class="widget-content-wrapper">
                                    <div class="widget-content-left">
                                        <div class="widget-subheading">
                                            <h2><b>#{{ $ticket->ticket_no }}</b></h2>
                                            <h4>{{ $ticket->subject }}</h4>
                                            {{ $ticket->desc }}
                                        </div>
                                    </div>
                                </div>
                            </div>
                            <hr />
                            @endif

                            <label>STATUS</label>
                            <div class="form-group">
                                <select class="form-control-sm form-control" name="status_order">
                                    <option selected>Approved Request / Waiting Payment</option>
                                </select>
                            </div>
                            <button type="button" class="accept-modal btn btn-sm btn-primary"><i class="fa fa-plus"></i> CREATE ORDER</button>
                        </div>
                    </div>
                </div>
            </div>
        </div>
    </div>
    <div class="col-md-12" style="margin-top: 20px;">
        <div class="card header-border">
            <div class="card-body">
                <div class="row">
                    <div class="col-md-6">

                        <label>SELECT SERVICE</label>
                        <div class="form-group">
                            <select id="select-services" name="ms_service_id" style="width:100%;" required>
                                <option value="" selected="selected">--Select--</option>
                            </select>
                        </div>
                        <div class="service-form-area">
                            <label>SYMPTOM</label>
                            <div class="form-group">
                                <div class="keluhan-input-area"></div>
                            </div>
                            <label class="" for="">LAYANAN</label>
                            <div class="form-group">
                                <div class="form-row layanan-input-area"></div>
                            </div>
                        </div>
                        <label>ADDITIONAL INFO</label>
                        <div class="form-group">
                            <textarea class="form-control" name="note" id="note"></textarea>
                        </div>

                        <button class="btn btn-danger btn-find-teknisi" type='button'>
                            <i class="fa fa-search"></i> Find Technicians
                        </button>
                        <hr>

                    </div>
                    <div class="col-md-6">
                        <div id="detail_teknisi_text"></div>
                        <div class="card header-border" style="box-shadow: 0 5px 5px rgba(0, 0, 0, 0.2);">
                            <div class="price scroll-area-sm">
                                <table class="table table-user-information">
                                    <tbody class="service-subtotal-area"></tbody>
                                </table>
                                <table class="table table-user-information">
                                    <tbody id="extra-cost-area"></tbody>
                                </table>
                                <table class="table table-user-information">
                                    <tbody>
                                        <th>GRAND TOTAL</th>
                                        <th class="text-right">Rp.<b class="grand-total">0</b></th>
                                        <input type="hidden" class="get_total">
                                    </tbody>
                                </table>
                            </div>
                        </div>
                    </div>
                </div>
            </div>
        </div>
    </div>
</form>

<!-- modal find teknisi -->
<div class="modal fade" data-backdrop="false" id="modal-find-teknisi" role="dialog" tabindex="-1">
    <div class="modal-dialog modal-lg" role="document">
        <div class="modal-content">
            <div class="modal-header">
                <h4 class="modal-title">Find Teknisi</h4>
                <button aria-label="Close" class="close" data-dismiss="modal" type="button">
                    <span aria-hidden="true">×</span>
                </button>
            </div>
            <div class="modal-body">
                <label>SELECT TECHNICIAN</label>
                <div class="form-group">
                    <select id="select-technicians" style="width:100%">
                        <option value="" selected="selected">--Select--</option>
                    </select>
                </div>
                <div class="card header-border" id="part-teknisi">
                    <input type="hidden" name="type_part" id="type_part" value="my-inventory">
                    <div class="card-header">
                        Add additional sparepart from
                        <div class="btn-actions-pane-right">
                            <div class="nav">
                                <a data-toggle="tab" href="#tab-eg2-0" class="btn-tab btn-wide active btn btn-outline-success btn-md" data-desc="sparepaer-inventory">My Inventory</a>
                                <a data-toggle="tab" href="#tab-eg2-1" class="btn-tab btn-wide mr-1 ml-1  btn btn-outline-success btn-md" data-desc="sparepaer-company">Company </a>
                            </div>
                        </div>
                    </div>
                    <div class="card-body">
                        <div class="tab-content">
                            <div class="tab-pane active" id="tab-eg2-0" role="tabpanel">
                                <div class="dynamic_sparepart scroll-area-sm" style="height: 150px">
                                    <div class="position-relative row form-group">
                                        <div class="col-sm-7">
                                            <select class="select-part select-part-xxx" data-uniq="xxx" style="width:100%">
                                                <option value="" selected="selected">--Pilih--</option>
                                            </select>
                                        </div>
                                        <div class="col-sm-3">
                                            <input type="number" min="1" data-uniq="xxx" placeholder="unit" name="qty_sparepart[]" class="form-control-sm form-control mb-3 part-unit part-unit-xxx" value="1">
                                        </div>
                                    </div>
                                </div>
                                <div class="col-sm-2" style="padding-left:0px;">
                                    <button id="add" class=" btn-transition btn btn-sm btn-success"><i class="fa fa-plus"></i> ADD</button>
                                </div>
                            </div>
                            <div class="tab-pane" id="tab-eg2-1" role="tabpanel">
                                <div class="dynamic_sparepart_company scroll-area-sm" style="height: 200px">
                                    <div class="position-relative row form-group">
                                        <div class="col-sm-7">
                                            <select class="select-inventory select-inventory-xxx" data-uniq="xxx" style="width:100%">
                                                <option value="" selected="selected">--Pilih--</option>
                                            </select>
                                        </div>
                                        <div class="col-sm-3">
                                            <input type="number" data-uniq="xxx" placeholder="unit" name="qty_inventory[]" class="form-control-sm form-control mb-3 inventory-unit inventory-unit-xxx" value="1">
                                        </div>
                                    </div>
                                </div>
                                <div class="col-sm-2" style="padding-left:0px;">
                                    <button id="add-inventory" class=" btn-transition btn btn-sm btn-success"><i class="fa fa-plus"></i> ADD</button>
                                </div>
                            </div>
                        </div>
                    </div>
                </div>
            </div>
            <div class="modal-footer">
                <button class="btn btn-primary waves-effect" data-dismiss="modal" type="button">SAVE</button>
            </div>
        </div>
    </div>
</div>

<div class="modal fade" data-backdrop="false" id="modal-accepted-job" role="dialog" tabindex="-1">
    <div class="modal-dialog" role="document">
        <div class="modal-content">
            <div class="modal-header">
                <h4 class="modal-title">
                    Approve Confirmation
                </h4>
                <button aria-label="Close" class="close" data-dismiss="modal" type="button">
                    <span aria-hidden="true">
                        ×
                    </span>
                </button>
            </div>
            <div class="modal-body">
                <div id="less_balance" class="border" style="padding:10px;border-color:red;">
                    <div class="row">
                        <div class="col-md-6">
                            <label>E-Wallet Customer</label>
                            <div class="form-group">
                                <h4 id="customer_ewallet_display"></h4>
                            </div>
                        </div>

                        <div class="col-md-6">
                            <label>Grand Total</label>
                            <div class="form-group">
                                <h4 id="grand_total_approve"></h4>
                            </div>
                        </div>
                    </div>
                    <label>Customer is less balance than grand total order. You can still approve this order and will be send notice for customer to top up balance.</label>
                </div>
                <br />
                <div style="padding:10px">
                    <div class="row">
                        <div class="col-md-6">
                            <label>Start Working at </label>
                            <div class="form-group">
                                <h4 id="start_at"></h4>
                            </div>
                        </div>

                        <div class="col-md-6">
                            <label>End Hours at </label>
                            <div class="form-group">
                                <h4 id="end_at"></h4>
                            </div>
                        </div>
                    </div>
                </div>
                <div>
                    <label>What is the estimated work time?</label>
                    <div class="row">
                        <div class="input-group col-md-6">
                            <select class="form-control" id="estimation_hours" required style="width:100%">
                                <option selected="" value=0>Select Duration</option>
                                <option value=1>1</option>
                                <option value=2>2</option>
                                <option value=3>3</option>
                                <option value=4>4</option>
                                <option value=5>5</option>
                            </select>
                        </div>
                        <div class="input-group-append col-md-6">
                            <span class="input-group-text">Hours</span>
                        </div>

                    </div>
                </div>
            </div>
            <div class="modal-footer">
                <button class="btn btn-primary waves-effect accept-btn" type="button">
                    Save
                </button>
                <button class="btn waves-effect" data-dismiss="modal" type="button">
                    Close
                </button>
            </div>
        </div>
    </div>
</div>

@endsection

@section('script')
<script src="https://cdnjs.cloudflare.com/ajax/libs/jquery-datetimepicker/2.5.20/jquery.datetimepicker.full.min.js">
</script>
<script src="https://stackpath.bootstrapcdn.com/bootstrap/4.4.1/js/bootstrap.min.js">
</script>
<link href="https://cdnjs.cloudflare.com/ajax/libs/jquery-datetimepicker/2.5.20/jquery.datetimepicker.min.css" rel="stylesheet" />

<script src="https://maps.googleapis.com/maps/api/js?key=AIzaSyCQmaBMz3O8uLV0qlIczUwGDHkhtvxRRJ8"></script>

<!-- datepicker -->
<script>
    var jam_teknisi = [];
    var teknisi_id = null;
    Helper.dateScheduleJob('#schedule');
    $(document).on('click', '.accept-modal', function() {
        $('#available_schedule').removeClass('border border-danger');
        $('#display_hours_available').removeClass('border border-danger');
        if ($('.select-customer').val() == '') {
            return Helper.warningNotif("Select Customers must be Required !");
        } else if ($('#select-services').val() == '') {
            return Helper.warningNotif("Select Services must be Required !");
        } else if (!$('.keluhan-radio').is(':checked')) {
            return Helper.warningNotif("Symptom must be Required !");
        } else if (!$('[name="service_type_id[]"]:checked').length > 0) {
            return Helper.warningNotif("Layanan must be Required !");
        } else if ($('.unit-layanan') == '') {
            return Helper.warningNotif("Unit must be Required !");
        } else if ($('#note').val() == '') {
            return Helper.warningNotif("Note must be Required !");
        } else if ($('#schedule').val() == '') {
            Helper.warningNotif("Schedule must be Required !");
            $('#available_schedule').addClass('border border-danger');
            return false;
        } else if (!$('.hours').is(':checked')) {
            $('#display_hours_available').addClass('border border-danger');
            return Helper.warningNotif("Hours must be required !");
        } else {
            $('#modal-accepted-job').modal('show');
            $('#start_at').html(moment($('#schedule').val() + ' ' + $("input[name='hours']:checked").val()).format('YYYY-MM-DD HH:00'));
            $('#less_balance').hide();

            console.log($('#customer_ewallet').val())
            console.log($('.get_total').val())
            if ($('#customer_ewallet').val() < $('.get_total').val()) {
                $('#customer_ewallet_display').html(Helper.toCurrency($('#customer_ewallet').val()));
                $('#less_balance').show();
                $('#grand_total_approve').html(Helper.toCurrency($('.get_total').val()));
                $('#is_less_balance').val(1);
            }
        }

    })

    $(document).on('change', '#estimation_hours', function() {
        var returned_endate = moment($('#start_at').html()).add($(this).val(), 'hours');
        console.log(returned_endate.format('H'));
        console.log(jam_teknisi)
        $('#end_at').html(returned_endate.format('HH:00'));
        if ($.inArray(parseInt(returned_endate.format('H')), jam_teknisi) !== -1) {
            return Helper.warningNotif("Cannot pick estimate hours. Cause at " + $('#end_at').html() + " in the technician schedule !");
        }
    });



    var _MY_INVENTORY = [];
    var selected = [{}];

    // initialize
    Helper.date('#schedule', 1, 'd M Y H:m');
    Helper.hideSidebar();
    $('#grand-total-text').text(0);
    $('.service-form-area').hide();
    globalCRUD.select2("#select-services", '/services/select2');
    initializeSelect2customer($(".select-customer"), '/user/teknisi-select2', displayItemCustomer);

    // chenage customer
    $(document).on('change', '.select-customer', function() {
        handleChangeCustomerSelect($(this).val());
    });

    // change service
    $(document).on('change', '#select-services', function() {
        $('.service-form-area').show();
        handleChangeServiceSelect($(this).val());
        $('.layanan-input-area').html('');
        cleanTemplate();
    });

    // change symtom
    $(document).on('change', '.keluhan-radio', function() {
        var symptom_id = $(this).val();

        $('.layanan-input-area').html('');

        cleanTemplate();

        // get layana
        Axios.get('/symptom/' + symptom_id)
            .then(function(response) {
                symptom = response.data.data;

                template = '';
                _.each(symptom.service_types, function(row) {
                    template += templateLayanan(row);
                })

                $('.layanan-input-area').html(template);
                $('.unit-input').hide();
                Helper.noNegative();
            })
            .catch(function(error) {
                Helper.handleErrorResponse(error)
            });
    });

    // change layanan
    $(document).on('change', '.layanan-checkbox', function(e) {
        id = $(this).attr('data-id');

        cleanTemplate();

        if (this.checked) {
            $('.unit-input-no-' + id).show();
        } else {
            $('.unit-input-no-' + id).hide();
        }
    })


    // ganti unit layanan
    $(document).on('change', '.unit-layanan', function(e) {
        teknisi_id = $('#select-technicians').val();
        if (teknisi_id) {
            select_teknisi = $('#select-technicians').select2("data");
            teknisi = _.find(select_teknisi, function(data) {
                return data.id == teknisi_id;
            });
            $('.service-subtotal-area').html(templateServiceSubtotal(teknisi));
            hitungGrandTotal();
        }
    })

    // klik find teknisi
    $(document).on('click', '.btn-find-teknisi', function(e) {
        if ($('#select-services').val() == '') {
            Helper.errorNotif("service required");
            return false;
        }

        symptom_id = $("input[name='symptom_id']:checked").length;
        if (symptom_id == 0) {
            Helper.errorNotif("You must check at least one checkbox.");
            return false;
        }

        valid_service = false;
        $('input[name="service_type_id[]"]').each(function() {
            if ($(this).is(':checked')) {
                data_id = $(this).attr('data-id');
                unit = $('.unit-uniq-' + data_id).val();
                if (unit == '' || unit == 0) {
                    valid_service = false;
                    return true;
                }
                valid_service = true;
                return true;
            }
        });

        if (valid_service == false) {
            Helper.errorNotif("Layanan required");
            return false;
        }

        // opaen modal
        $('#modal-find-teknisi').modal('show');

        teknisi_id = $('#select-technicians').val();
        if (teknisi_id == '' || teknisi_id == null) {
            var service_type_id = [];
            $('input[name="service_type_id[]"]').each(function() {
                if ($(this).is(':checked')) {
                    service_type_id.push($(this).val());
                } else {
                    service_type_id.push(null);
                }
            });
            // get layana
            initializeSelect2Teknisi(service_type_id);
        }
    })

    // change teknisi
    $(document).on('change', '#select-technicians', function() {
        value = $(this).val();
        $('#available_schedule').show();
        if (value) {
            handleChangeTeknisiSelect(value);
        }
    });


    // =============== sparepart event

    // on clik add spartpart teknisi
    $(document).ready(function() {
        var i = 1;
        $('#add').click(function() {
            i++;
            select_teknisi = $('#select-technicians').select2("data");
            teknisi = _.find(select_teknisi, function(data) {
                return data.id == $('#select-technicians').val()
            });
            $('.dynamic_sparepart').append((
                `<div class="position-relative row form-group" id="row_${i}">
                    <div class="col-sm-6">
                        <input type="text" min=1 id="name_sparepart_${i}" data-uniq="${i}" placeholder="Name Sparepart" name="name_sparepart[]" class="form-control-sm form-control mb-3 part-name part-name-${i}">
                    </div>
                    <div class="col-sm-3">
                        <input type="number" min=1 id="price_sparepart_${i}" data-uniq="${i}" placeholder="Price" name="price_sparepart[]" class="form-control-sm form-control mb-3 part-price part-price-${i}">
                    </div>
                    <div class="col-sm-2">
                        <input type="number" min=1 id="qty_sparepart_${i}" data-uniq="${i}" placeholder="unit" name="qty_sparepart[]" value="1" class="form-control-sm form-control mb-3 part-unit part-unit-${i}">
                    </div>
                    <div class="col-sm-1" style="padding-left:0px;">
                        <button name="remove" data-uniq="${i}" class="btn-transition btn btn-sm btn-danger btn_remove"><i class="fa fa-minus"></i></button>
                    </div>
                </div>`));
            Helper.noNegative();

        });

    });

    // on cklik btn hapus
    $(document).on('click', '.btn_remove', function() {
        var button_id = $(this).attr("data-uniq");
        $('#row_' + button_id + '').remove();

        // reload extra cost
        pushCost();
    });

    // event link tab klik
    $('.btn-tab').click(function() {
        $('#extra-cost-area').html('');
        tab = $(this).attr('data-desc');
        if (tab == 'sparepaer-inventory') {
            $('#type_part').val('my-inventory');
            pushCost();
        } else {
            $('#type_part').val('my-company');
            pushCostInventoryCompany();
        }
    });

    // even select part di ganti
    $(document).on('keyup', '.part-name', function() {
        pushCost();
    });

    // event input unit di ganti
    $(document).on('keyup', '.part-price', function() {
        uniq = $(this).attr('data-uniq');
        sparepart = $('.part-name-' + uniq).val();
        if (sparepart != '') {
            pushCost();
        }
    });

    // even input unit di ganti
    $(document).on('change', '.part-unit', function() {
        uniq = $(this).attr('data-uniq');
        sparepart = $('.select-part-' + uniq).val();
        if (sparepart != '') {
            pushCost();
        }
    });

    //inventory add
    $(document).ready(function() {
        var xx = 1;
        $('#add-inventory').click(function() {
            xx++;
            $('.dynamic_sparepart_company').append((
                `<div class="position-relative row form-group" id="inventory_row_${xx}">
                    <div class="col-sm-7">
                        <select class="select-inventory select-inventory-${xx}" id="inventory_id_${xx}" data-uniq="${xx}" name="inventory_id[]" style="width:100%">
                            <option value="" selected="selected">--Pilih--</option>'+
                        </select>
                    </div>
                    <div class="col-sm-3">
                        <input type="number" min="1" id="qty_inventory_${xx}" data-uniq="${xx}" placeholder="unit" name="qty_inventory[]" value="1" class="form-control-sm form-control mb-3 inventory-unit inventory-unit-${xx}">
                    </div>
                    <div class="col-sm-2" style="padding-left:0px;">
                        <button name="remove" data-uniq="${xx}" class="btn-transition btn btn-sm btn-danger btn_remove_inventory"><i class="fa fa-minus"></i></button>
                    </div>
                </div>`));
            Helper.noNegative();
            var newSelect = $(".dynamic_sparepart_company").find(".select-inventory").last();
            initializeSelect2InventoryCompany(newSelect);
        });
    });

    // delete
    $(document).on('click', '.btn_remove_inventory', function() {
        var button_id = $(this).attr("data-uniq");
        $('#inventory_row_' + button_id + '').remove();
        pushCostInventoryCompany();
    });

    // even input unit di ganti
    $(document).on('change', '.inventory-unit', function() {
        uniq = $(this).attr('data-uniq');
        unit_val = $(this).val();

        item = $('.select-inventory-' + uniq).val();
        if (item != '') {

            inventories = $('.select-inventory-' + uniq).select2("data");
            inventory = _.find(inventories, function(inv) {
                return inv.id == value;
            });

            if (parseInt(unit_val) <= parseInt(inventory.data.stock)) {
                pushCostInventoryCompany();
            } else {
                $(this).val(1);
            }
        }
    });

    // even select part di ganti
    $(document).on('change', '.select-inventory', function() {
        id = $(this).val();

        valid = validasiSelectInventoryCompany(id);
        if (valid == true) {
            pushCostInventoryCompany();
        } else {
            $(this).val('').change();
            Helper.errorNotif('Already Selected');
        }
    });


    // submit bttn
    $(document).on('click', '.accept-btn', function(e) {
        var schedule = $('#schedule').val() + ' ' + $("input[name='hours']:checked").val();
        // console.log(schedule)
        now = new Date();
        var now = moment(now).format('YYYY-MM-DD')
        var returned_endate = moment($('#start_at').html()).add($('#estimation_hours').val(), 'hours');
        console.log(now)
        console.log(returned_endate.format('H'));
        if ($('#schedule').val() < now) {
            return Helper.warningNotif("Schedule must be in the future !");
        } else if (!$('.hours').is(':checked')) {
            $('#display_hours_available').addClass('border border-danger');
            return Helper.warningNotif("Hours must be required !");
        } else if ($.inArray(parseInt(returned_endate.format('H')), jam_teknisi) !== -1) {
            return Helper.warningNotif("Cannot pick estimate hours. Cause at " + $('#end_at').html() + " in the schedule !");
        } else if ($('#estimation_hours').val() == 0) {
            return Helper.warningNotif("Estimation Hours must be required !");
        } else {
            Helper.loadingStart();
            var form = Helper.serializeForm($('#form-job'));
            data = {};
            data.ticket_id = $('#ticket_id').val() ? $('#ticket_id').val() : null;
            data.address_id = $('[name="address_id"]:checked').val();
            data.ms_service_id = $('#select-services').val();
            data.symptom_id = $('[name="symptom_id"]:checked').val();
            data.schedule = schedule;
            data.note = $('#note').val();
            data.get_total = $('.get_total').val();
            data.total_extra_cost = $('.total_extra_cost').val();
            data.user_id = $('.select-customer').val();
            data.technician_id = $('#select-technicians').val();

            data.nominal = $('customer_ewallet').val();

            var service_type_id = [];
            var units = [];
            $('input[name="service_type_id[]"]').each(function() {
                if ($(this).is(':checked')) {
                    data_id = $(this).attr('data-id');
                    unit = $('.unit-uniq-' + data_id).val();
                    units.push(unit);
                    service_type_id.push($(this).val());
                }
            });
            data.service_type_id = service_type_id;
            data.unit_type_service = units;
            data.price_service_id = $('[name="price_service_id[]"]').map(function() {
                return $(this).val();
            }).get();
            data.inventory_id = $('.select-inventory').map(function() {
                return $(this).val();
            }).get();
            data.name = $('.part-name').map(function() {
                return $(this).val();
            }).get();
            data.unit = $('.part-unit').map(function() {
                return $(this).val();
            }).get();
            data.price = $('.part-price').map(function() {
                return $(this).val();
            }).get();
            data.type = $('#type_part').val();
            data.name_inventory = $('.name_sparepart_inventory').map(function() {
                return $(this).val();
            }).get();
            data.price_inventory = $('.price_sparepart_inventory').map(function() {
                return $(this).val();
            }).get();
            data.qty_inventory = $('.inventory-unit').map(function() {
                return $(this).val();
            }).get();


            console.log(data);

            // get layana
            Axios.post('/admin/order/create_order/save', data)
                .then(function(response) {
                    Helper.successNotif('Create Order Job by Admin Berhasil success created!');
                    window.location.href = Helper.redirectUrl('/admin/transactions/show');
                    Helper.loadingStop();
                })
                .catch(function(error) {
                    Helper.handleErrorResponse(error)
                });

            e.preventDefault();
        }
    })

    // handle select2 here
    // ================

    // customer
    function displayItemCustomer(data) {
        var phone = data.phone != null ? data.phone : '-';
        images = "<img src='" + data.avatar + "' />";
        return {
            id: data.id,
            text: "<div class='select2-result-repository clearfix'>" +
                "<div class='select2-result-repository__avatar'>" + images + "</div>" +
                "<div class='select2-result-repository__meta'>" +
                "<div class='select2-result-repository__title'><b>" + data.name + "</b></div>" +
                "<div class='select2-result-repository__description'>Phone : <b>" + phone + "</b></div>" +
                "<div class='select2-result-repository__description'>Email : <b>" + data.email + "</b></div>" +
                "</div></div>",
            name: data.name + ' / ' + data.email,
            data: data
        };
    }

    function initializeSelect2customer(selectElementObj, url, displayItem) {
        selectElementObj.select2({
            // minimumInputLength: 1,
            ajax: {
                url: Helper.apiUrl(url),
                dataType: 'json',
                delay: 250,
                data: function(params) {
                    return {
                        q: params.term,
                        page: params.page
                    };
                },
                processResults: function(data, page) {
                    return {
                        results: $.map(data.data, displayItem)
                    };
                },
                cache: true
            },
            escapeMarkup: function(markup) {
                return markup;
            },
            templateSelection: function(data) {
                return data.name || data.text;
            }
        });
    }

    // teknisi select
    function displayItemTeknisi(data) {
        var phone = data.user.phone != null ? data.user.phone : '-';
        var images = "<img src='" + data.user.avatar + "' />";
        var price_service = '';
        $('input[name="service_type_id[]"]').each(function() {
            if ($(this).is(':checked')) {
                service_type_id = $(this).val();
                price = _.find(data.price_services, function(row) {
                    return row.ms_services_types_id == service_type_id;
                });
                console.log('price', price)
                if (price) {
                    price_service += "<div class='select2-result-repository__description'><b>" + price.service_type.name + "</b> (" + Helper.toCurrency(price.value) + ")</div>";
                }
            }
        });


        return {
            id: data.id,
            text: "<div class='select2-result-repository clearfix'>" +
                "<div class='select2-result-repository__avatar'>" + images + "</div>" +
                "<div class='select2-result-repository__meta'>" +
                "<div class='select2-result-repository__title'><b>" + data.user.name + "</b></div>" +
                "<div class='select2-result-repository__description'>Phone : <b>" + phone + "</b></div>" +
                "<div class='select2-result-repository__description'>Email : <b>" + data.user.email + "</b></div>" +
                price_service +
                "</div></div>",
            name: data.user.name + ' / ' + data.user.email,
            data: data
        };
    }

    function initializeSelect2Teknisi(service_type_id) {
        $('#select-technicians').select2({
            dropdownParent: $('#modal-find-teknisi'),
            // minimumInputLength: 1,
            ajax: {
                url: Helper.apiUrl('/admin/order/find_technicians'),
                dataType: 'json',
                delay: 250,
                type: 'post',
                data: function(params) {
                    return {
                        service_type_id: service_type_id,
                        q: params.term,
                        page: params.page
                    };
                },
                processResults: function(data, page) {
                    return {
                        results: $.map(data, displayItemTeknisi)
                    };
                },
                cache: true
            },
            escapeMarkup: function(markup) {
                return markup;
            },
            templateSelection: function(data) {
                console.log('templateSelection', data)
                return data.name;
            }
        });
    }

    // company sparepart
    function displayItemInventory(data) {
        if (data.batch_item) {
            var images = "<img src='" + Helper.url('/adminAssets/image/no-image.png') + "' />";
            return {
                id: data.id,
                text: "<div class='select2-result-repository clearfix'>" +
                    "<div class='select2-result-repository__avatar'>" + images + "</div>" +
                    "<div class='select2-result-repository__meta'>" +
                    "<div class='select2-result-repository__title'>" + data.batch_item.product_name + "</div>" +
                    "<div class='select2-result-repository__description'>" + data.warehouse.name + "</div>" +
                    "<div class='select2-result-repository__description'>" + data.stock + ' ' + data.unit_type.unit_name + "</div>" +
                    "<div class='select2-result-repository__statistics'>" +
                    "<div class='select2-result-repository__forks'><i class='fa fa-fa-money'></i><b> Rp. " + Helper.toCurrency(data.cogs_value) + "</b></div>" +
                    "</div></div>",
                name: data.batch_item.product_name + "(Qty: " + data.stock + ")",
                data: data
            };
        }

        return {
            id: '',
            text: "",
            name: '',
            data: []
        };
    }

    function initializeSelect2InventoryCompany(selector = null) {
        inv_select = $('.select-inventory');
        if (selector != null) {
            inv_select = selector;
        }
        inv_select.select2({
            ajax: {
                url: Helper.apiUrl('/teknisi/inventory-company/select2'),
                dataType: 'json',
                delay: 250,
                data: function(params) {
                    return {
                        q: params.term,
                        page: params.page
                    };
                },
                processResults: function(data, page) {
                    return {
                        results: $.map(data.data, displayItemInventory)
                    };
                },
                cache: true
            },
            data: $.map(selected, displayItemInventory),
            escapeMarkup: function(markup) {
                return markup;
            },
            templateSelection: function(data) {
                return data.name || data.text;
            }
        });
    }


    // handle evenr here
    // =========
    function handleChangeServiceSelect(service_id) {
        Helper.loadingStart();
        url = Helper.apiUrl('/admin/symptom/select2/' + service_id);
        Axios.get(url)
            .then(function(response) {
                Helper.loadingStop();
                console.log('handleChangeServiceSelect', response)
                templateSymtomRadio(response.data.data)
            })
            .catch(function(error) {
                Helper.handleErrorResponse(error)
            });
    }

    function handleChangeCustomerSelect(customer_id) {
        select_customer = $('.select-customer').select2("data");
        data_customer = _.find(select_customer, function(data) {
            return data.id == customer_id;
        });
        var customer_wallet = data_customer.data.ewallet != null ? data_customer.data.ewallet.nominal : 0;
        var html_addresses = '';
        _.each(data_customer.data.addresses, function(addr) {
            checked = addr.is_main == 1 ? 'checked' : '';

            html_addresses += (`
                <input type="radio" name="address_id" value="${addr.id}" id="Radio-${addr.id}" ${checked}/>

                <label class="list-group-item" for="Radio-${addr.id}">
                    ${addr.types.name}
                    <p>${addr.address}</p>
                </label>
            `);
        });
        phone_cus = data_customer.data.phone == null ? '-' : data_customer.data.phone;
        var html = (`
            <label>EMAIL</label>
            <div class="form-group">
                <p>${data_customer.data.email}</p>
            </div>
            <label>PHONE</label>
            <div class="form-group">
                <p>${phone_cus}</p>
            </div>
            <label>SELECT CUSTOMER ADDRESS</label>
            <div>
                <div class="list-group">
                    ${html_addresses}
                </div>
            </div>
            <input type="hidden" name="customer_ewallet" id="customer_ewallet" value="${customer_wallet}"/>
        `);

        $('#detail_customer_text').html(html);
    }

    function handleChangeTeknisiSelect(teknisi_id) {
        $('#part-teknisi').show();

        select_teknisi = $('#select-technicians').select2("data");
        teknisi = _.find(select_teknisi, function(data) {
            return data.id == teknisi_id;
        });
        var image_src = teknisi.data.user.avatar;
        star = Helper.ratingStar(teknisi.data.avg_rating);
        var html = (`
            <div class="user-profile">
                <img class="avatar" src="${image_src}" alt="Ash" />
                <div class="username">${teknisi.data.user.name}</div>
                <div class="bio">
                    ${teknisi.data.user.email}
                    <br />
                    ${star}
                    <br />
                    (${teknisi.data.total_review}) Review
                </div>
            </div>
        `);
        $('#detail_teknisi_text').html(html);
        $('.service-subtotal-area').html(templateServiceSubtotal(teknisi));
        initializeSelect2InventoryCompany();
        hitungGrandTotal();
    }

    // template utility function here
    // ======
    function templateSymtomRadio(symptoms) {
        var template = '';
        _.each(symptoms, function(symptom) {
            template += (`
                <div class="custom-radio custom-control">
                    <input class="custom-control-input keluhan-radio" id="keluhan-${symptom.id}" name="symptom_id" type="radio" value="${symptom.id}" required/>
                    <label class="custom-control-label" for="keluhan-${symptom.id}">
                        ${symptom.name}
                    </label>
                </div>
            `);
        });
        $('.keluhan-input-area').html(template);
    }

    function templateLayanan(data) {
        t = '';
        t += ' <div class="col-md-12">';
        t += ' <div class="position-relative form-group">';
        t += ' <div>';
        t += ' <div class="custom-checkbox custom-control">';
        t += ' <input type="checkbox" name="service_type_id[]" value="' + data.id + '" id="layanan-' + data.id + '" class="custom-control-input layanan-checkbox" data-id="' + data.id + '">';
        t += ' <label class="custom-control-label" for="layanan-' + data.id + '">' + data.name + '</label>';
        t += ' </div>';
        t += ' </div>';
        t += ' </div>';
        t += ' </div>';
        t += ' <div class="col-md-4 unit-input unit-input-no-' + data.id + '">';
        t += ' <div class="position-relative form-group">';
        t += ' <input type="number" name="unit[]" min="1" class="unit-layanan form-control form-control-sm unit-uniq-' + data.id + '" placeholder="Unit">';
        t += ' </div>';
        t += ' </div>';

        return t;
    }

    function templateServiceSubtotal(teknisi) {
        var price_service = '';
        var total = 0;
        price_service += (`
            <tr>
                <th style="text-decoration: underline;">SERVICE COST</th>
            </tr>
        `);
        $('input[name="service_type_id[]"]').each(function() {
            if ($(this).is(':checked')) {
                service_type_id = $(this).val();
                uniq = $(this).attr('data-id');
                price = _.find(teknisi.data.price_services, function(row) {
                    return row.ms_services_types_id == service_type_id;
                });
                console.log('price', price)

                if (price) {
                    unit = $('.unit-uniq-' + uniq).val();
                    total += parseInt(price.value) * parseInt(unit);
                    price_service += (`
                        <tr>
                            <th>${price.service_type.name}</th>
                        </tr>
                        <tr>
                            <th>Rp. ${price.value} <input type="hidden" value="${price.id}" name="price_service_id[]"></th>
                            <th class="text-right">X ${unit}</th>
                        </tr>
                    `);
                }
            }
        });
        service_cost_total = Helper.toCurrency(total);
        price_service += (`
            <tr>
                <th>TOTAL SERVICE COST</th>
                <th class="total-price-service-text text-right">${service_cost_total} <input type="hidden" value="${total}" name="total_service_cost" /></th>
            </tr>
        `);
        return price_service;
    }

    function pushCost() {
        template = '';
        template += '<tr>';
        template += '<th style="text-decoration: underline;">EXTRA COST</th>';
        template += '</tr>';

        grand_total = 0;
        total_part = 0;
        var part = {};

        $('.part-name').each(function() {
            var value = $(this).val();
            var uniq = $(this).attr('data-uniq');

            if (value != '') {
                part.name = value;
                part.price = ($('.part-price-' + uniq).val() != '') ? $('.part-price-' + uniq).val() : 0;
                part.unit = ($('.part-unit-' + uniq).val() != '') ? $('.part-unit-' + uniq).val() : 0;
                total_part += parseInt(part.unit) * parseInt(part.price);
                template += templateExtraCost(part);
            }
        })

        template += '<tr>';
        template += '<th>TOTAL EXTRA COST</th>';
        template += '<th class="text-right">' + Helper.toCurrency(total_part) + ' <input type="hidden" value="' + total_part + '"  name="total_extra_cost" class="total_extra_cost" /></th>';
        template += '</tr>';


        $('#extra-cost-area').html(template);
        hitungGrandTotal();
    }

    function templateExtraCost(sparepart) {
        var template = '';

        template += '<tr>';
        template += '<th>' + sparepart.name + '</th>';
        template += '</tr>';

        template += '<tr>';
        template += '<th>' + sparepart.unit + '</th>';
        template += '<th class="text-right">' + Helper.toCurrency(sparepart.price) + '</th>';
        template += '</tr>';
        return template;
    }

    function pushCostInventoryCompany() {
        template = '';
        template += '<tr>';
        template += '<th style="text-decoration: underline;">EXTRA COST</th>';
        template += '</tr>';
        grand_total = 0;
        $('.select-inventory').each(function() {
            value = $(this).val();
            uniq = $(this).attr('data-uniq');

            if (value != '') {
                inventories = $('.select-inventory-' + uniq).select2("data");
                inventory = _.find(inventories, function(inv) {
                    return inv.id == value;
                });
                if (inventory) {
                    unit = $('.inventory-unit-' + uniq).val();
                    inventory.unit = unit;
                    grand_total += parseInt(unit) * parseInt(inventory.data.cogs_value);
                    template += templateExtraCostInventoryCompany(inventory);
                }
            }
        })

        template += '<tr>';
        template += '<th>TOTAL EXTRA COST</th>';
        template += '<th class="text-right">' + Helper.toCurrency(grand_total) + ' <input type="hidden" value="' + grand_total + '" name="total_extra_cost" class="total_extra_cost" /></th>';
        template += '</tr>';
        $('#extra-cost-area').html(template);
        hitungGrandTotal();
    }

    function templateExtraCostInventoryCompany(inventory) {
        var template = '';

        template += '<tr>';
        template += '<th>' + inventory.data.batch_item.product_name + '</th>';
        template += '</tr>';

        template += '<tr>';
        template += '<th>' + Helper.toCurrency(inventory.data.cogs_value) + '</th>';
        template += '<th class="text-right"> X' + inventory.unit + ' ' + inventory.data.unit_type.unit_name + '</th>';
        template += '</tr>';
        template += "<input type='hidden' name='name_sparepart_inventory[]' class='name_sparepart_inventory' value=" + inventory.data.batch_item.product_name + ">";
        template += "<input type='hidden' name='price_sparepart_inventory[]' class='price_sparepart_inventory' value=" + inventory.data.cogs_value + ">";
        return template;
    }

    function validasiCost(id) {
        var jumlah = 0;
        $('.select-part').each(function() {
            value = $(this).val();

            if (id == value) {
                jumlah++;
            }

            if (jumlah == 2) {
                return;
            }
        })

        valid = jumlah >= 2 ? false : true;

        return valid;
    }

    function validasiSelectInventoryCompany(id) {
        var jumlah = 0;
        $('.select-inventory').each(function() {
            value = $(this).val();

            if (id == value) {
                jumlah++;
            }

            if (jumlah == 2) {
                return;
            }
        })

        valid = jumlah >= 2 ? false : true;

        return valid;
    }

    function cleanTemplate() {
        // clean teknisi
        $('#detail_teknisi_text').html('');

        // service cost
        $('.service-subtotal-area').html('');
        $('input[name="total_service_cost"]').val(0);

        // extra cost
        $('#extra-cost-area').html('');
        $('input[name="total_extra_cost"]').val(0);

        // teknisi select modal
        $('#select-technicians').empty();
        // sparepart
        $('.dynamic_sparepart').html('');

        // sparepart company
        $('.dynamic_sparepart_company').html();

        // hide part
        $('#part-teknisi').hide();

        // grnad total
        $('.grand-total').text('');
        $('.get_total').val();
    }

    function hitungGrandTotal() {
        service_cost = $('input[name="total_service_cost"]');
        extra_cost = $('input[name="total_extra_cost"]');

        service_cost_val = 0;
        extra_cost_val = 0;
        if (service_cost.length > 0) {
            service_cost_val = parseInt(service_cost.val());
        }

        if (extra_cost.length > 0) {
            extra_cost_val = parseInt(extra_cost.val());
        }

        grand_total = service_cost_val + extra_cost_val;

        // geand total
        $('.grand-total').text(Helper.toCurrency(grand_total));
        $('.get_total').val(grand_total);
    }
</script>


@endsection