{
  "type": "service_account",
  "project_id": "astech-469b6",
  "private_key_id": "d8c5a528f02bc65a1bde685385aece6d2b50def2",
  "private_key": "-----BEGIN PRIVATE KEY-----\nMIIEvgIBADANBgkqhkiG9w0BAQEFAASCBKgwggSkAgEAAoIBAQC6GV74ySfSTTzZ\nyIDu591o6VTnn6Hx2Rl22hKkZCEn0dmhoEgAO/xXkPBGUdvVIIg0U5hTIlhDDYQi\nieUENyqJf8yStQFTD9avnAp9ELfibJ6TgGaUGmOOXRUC4jAss0r0PEbOZQdJNhwg\nnghMyf4Fwe7Jl7Bps65zS+I0ghEQyJOUzTKfZKk2jic3Q5oh6bFjcnjy0YjmxomY\ny/VXf7yfb6YsN9jWhxmp1ZU+a6PkdUUJBS/CVnEzH1VdJwjqmH7WnZG+JXbst6nl\n4jfnIDhlF7jXNjNklfhpM360VT9eVoi/t1aPUka/6PkyRL8Qe2tBGcoYI6uXvNjl\nrZTZ/rVrAgMBAAECggEAAZ3gob3S4fbvenwMEnbwjhe3+TKRgFTZLGveRxoDi/+c\nMBjsxQJC6LOQOEwDnoytsZy4L2m5eDyErSm+yd7zDcLDflBj8l5wfk5G/lfgdLCD\nVKtwD0joxswatQbQTytq/RzqZJiv1etKRiXByWNsWgCXKAzuBXD7Ht5gb3oqdQ/2\nTnfOJudHQFcIFQIQv7QluBRwpVzxKqnu8NlUqkqUUYiOyKYpC/w8l5leBygWvfDY\nRSiOH3rF+4s3Ngh844m9Z4bUBjnjSjePB7Ok+q8VFdMtJpdl+FSCT6uXp5qYy5l0\nYp4NQa3h5j+m1kVAv1s9Kj2Nri/jaYf1486UXouHqQKBgQDwuAZ1mxwGFluhriOL\nrbl6Olsk7ZqapqAN/vW5BsCzqFF/+gZX6xOKNZiTgci4tWdZEdvtc9miCwS3fKZa\nMGJNlHBJ1PCMZiH4+57U9DZaFMzVrkd5zx5+86j/wkFB0FEUsHH9HlMizv5mi94r\nsu67xdhtNTsY91hi0JBGYVncwwKBgQDF6bVVZA7Iyz8ny0wUqJ9i7wHQ2noLyodV\nWfr40r2/NpBg5DSumT4O1EXDAW+u5YRGw9pRRkuOJY82/KKC3xBmY+fS3qKzXd9D\nhsLd1LhhI57qPzmZCVVmu0z8qy1o3VUPV8wWNXHkLbkB+bu/gSgaC/1vvzTARl3+\noGpgPyBaOQKBgQC64EKzfo1M9IKCjCwwPdgmWbN0gblqojzTYMHmuKVVVDChR7sw\n+eCbhWxD55eqPbpT3Zd9SlkEgcVRpUWH8tP+ImTiDJwKgyeQodb2v/iKCmfS44+9\nstub9xGWLHp42352r1xvAuHLviKl/aOnDSxlPfz9Gzwb77oATKYU3XLj/QKBgGs4\nZx4A3CWaPvffIrOaeucNVy1//1i9+z2ZRudgvJ2IAQYM/CGPMdi01aqE762P+G6i\nEnevnqU+4ezHR3+hO3BNNb2/EeQcuiUKMC4f3Vf7BVAguqKXNOY4GMhWMH68UiXC\nyfVKNQ6KWs2gLz/byA78aewNaZW1SZz16UuFR5C5AoGBAOaXTiTNMws+10ZsZp9g\nI+5BGN8POOUX20UuchzxDf7ELu/jET0VBsKzMoS7lPgDuWPPQdHC2VBoFPLu4LO/\nuV8DZavZ7X+9MEks864ii2t1nqJ70HKL1JCwCZqzyitb+xfBeyNbT2WUuYbaioAi\nAciuxb6k/+SUkZysEVp6CAZp\n-----END PRIVATE KEY-----\n",
  "client_email": "firebase-adminsdk-zdwfg@astech-469b6.iam.gserviceaccount.com",
  "client_id": "109137905306070005432",
  "auth_uri": "https://accounts.google.com/o/oauth2/auth",
  "token_uri": "https://oauth2.googleapis.com/token",
  "auth_provider_x509_cert_url": "https://www.googleapis.com/oauth2/v1/certs",
  "client_x509_cert_url": "https://www.googleapis.com/robot/v1/metadata/x509/firebase-adminsdk-zdwfg%40astech-469b6.iam.gserviceaccount.com"
}
